{
    "Project 1": {
        "name": "",
        "desc": "",
        "contract-address": "",
        "block-chain": "",
        "image": "",
        "telegram": "",
        "twitter": "",
        "discord": "",
        "github": ""
    },
    "Project 2": {
        "name": "",
        "desc": "",
        "contract-address": "",
        "block-chain": "",
        "image": "",
        "telegram": "",
        "twitter": "",
        "discord": "",
        "github": ""
    },
    "Project 3": {
        "name": "",
        "desc": "",
        "contract-address": "",
        "block-chain": "",
        "image": "",
        "telegram": "",
        "twitter": "",
        "discord": "",
        "github": ""
    },
    "Project 4": {
        "name": "",
        "desc": "",
        "contract-address": "",
        "block-chain": "",
        "image": "",
        "telegram": "",
        "twitter": "",
        "discord": "",
        "github": ""
    },
    "Project 5": {
        "name": "",
        "desc": "",
        "contract-address": "",
        "block-chain": "",
        "image": "",
        "telegram": "",
        "twitter": "",
        "discord": "",
        "github": ""
    }
}
